The Hakai API Client Class — Client • hakaiApi
…
## ------------------------------------------------
## Method `Client$get_stations`
## ------------------------------------------------

try(client$get_stations())
#> Simple feature collection with 27 features and 2 fields
#> Geometry type: POINT
#> Dimension:     XY
#> Bounding box:  xmin: -128.1432 ymin: 50.116 xmax: -124.8554 ymax: 51.77083
#> Geodetic CRS:  WGS 84
#> # A tibble: 27 × 3
#>    station_id                sensor_node             geometry
#>    <chr>                     <chr>                <POINT [°]>
#>  1 Buxton                    Buxton      (-128.0178 51.60491)
#>  2 Calvert Reference Station RefStn      (-128.1287 51.65195)
#>  3 East Buxton               BuxtonEast  (-127.9752 51.58994)
#>  4 Ethel                     Ethel       (-127.5317 51.54844)
#>  5 Hecate                    Hecate      (-128.0228 51.68257)
#>  6 KCBuoy                    KCBuoy       (-127.9663 51.6499)
#>  7 Koeye                     Koeye       (-127.8794 51.77083)
#>  8 Lookout                   Lookout      (-128.1432 51.6475)
#>  9 Orford Buoy               OrfordBuoy  (-124.9018 50.59661)
#> 10 Orford Camp               OrfordCamp  (-124.8554 50.59206)
#> # ℹ 17 more rows
…
